{"dictionary":[
   { "id":"Choose_Language", "translation":"Wybierz język" },
   { "id":"Control_Panel", "translation":"Panel Kontrolny" },
   { "id":"Start", "translation":"Start" },
   { "id":"Stop", "translation":"Stop" },
   { "id":"Set_Position", "translation":"Ustaw Pozycję" },
   { "id":"Set_type_of_ride", "translation":"Wybierz typ jazdy" },
   { "id":"Choose_Keypose_Path", "translation":"Wybierz ścieżkę" },
   { "id":"Start_Path", "translation":"Rozpocznij ścieżkę" },
   { "id":"Points_Panel", "translation":"Panel Punktów" },
   { "id":"Start_Point", "translation":"Punkt startowy" },
   { "id":"Add_point", "translation":"Dodaj punkt" },
   { "id":"Edit_point", "translation":"Edytuj punkt" },
   { "id":"Remove_point", "translation":"Usuń punkt" },
   { "id":"Remove_all_points", "translation":"Usuń wszystkie punkty" },
   { "id":"Add_MidKeyPoseGraph", "translation":"       Dodaj \nPunkty Trasy" },
   { "id":"Save_MidKeyPoseGraph", "translation":"        Zapisz \nPunkty Trasy" },
   { "id":"Set_visible_of_graph", "translation":"Ustaw\n widoczność\n grafu" },
   { "id":"Map_Panel", "translation":"Panel Mapy" },
   { "id":"Visual_type_of_map", "translation":"Typ wizualny\n mapy" },
   { "id":"Load_map", "translation":"Załaduj mapę" },
   { "id":"Build_new_map", "translation":"Zbuduj nową mapę" },
   { "id":"Save_map", "translation":"Zapisz mapę" },
   { "id":"Keypose_Panel", "translation":"Panel Punktów Akcji" },
   { "id":"Add_KeyPose", "translation":"Dodaj Punkt Akcji"},
   { "id":"Add_KeyPose_at_Robot", "translation":"   Dodaj Punkt\n Akcji na robocie"},
   { "id":"Edit_KeyPose", "translation":"Edytuj Punkt Akcji"},
   { "id":"Delete_KeyPose", "translation":"Usuń Punkt Akcji"},
   { "id":"Dock_approach_front", "translation":"Zadokuj Przodem"},
   { "id":"Dock_approach_back", "translation":"Zadokuj Tyłem"},
   { "id":"Dock_departure_front", "translation":"Wydokuj Przodem"},
   { "id":"Dock_departure_back", "translation":"Wydokuj Tyłem"},
   { "id":"Finish_procedure", "translation":"Zakończ Procedurę"},
   { "id":"Stop_charging", "translation":"Zatrzymaj ładowanie"},
   { "id":"Skip_KeyPose", "translation":"Omiń Punkt Akcji"},
   { "id":"Set_visible_of_KeyPose", "translation":"Ustaw widoczność\n Punktu"},
   { "id":"Lift_up", "translation":"Podnośnik do góry"},
   { "id":"Lift_down", "translation":"Podnośnik do dołu"},
   { "id":"Lock", "translation":"Zamknij Sprzęg"},
   { "id":"Unlock", "translation":"Otwórz Sprzęg"},
   { "id":"Add_warning_zone", "translation":"Dodaj Strefę\n Ostrzegawczą"},
   { "id":"Delete_warning_zone", "translation":"Usuń Strefę\n Ostrzegawczą"},
   { "id":"Set_visible_of_warning_zone", "translation":"Ustaw widoczność\n Strefy Ostrzegawczej"},
   { "id":"KeyPose_Path", "translation":"Ścieżka Punktów"},
   { "id":"Keyposes", "translation":"         Punkty Akcji         "},
   { "id":"Keypose_Paths", "translation":"      Ścieżki Punktów      "},
   { "id":"Save_KeyPose_Path", "translation":"Zapisz ścieżkę Punktów"},
   { "id":"Send_To_KeyPose", "translation":"Wyślij do Punktu Akcji"},
   { "id":"Start_Temporary_Path", "translation":"Rozpocznij ścieżkę"},
   { "id":"Show_Path_On_Map", "translation":"Pokaż ścieżkę na mapie"},
   { "id":"Hide_Path_Of_Map", "translation":"Ukryj ścieżkę na mapie"},
   { "id":"Cyclic_Path", "translation":"Cykliczna ścieżka"},
   { "id":"KeyPose_Name", "translation":"Nazwa Punktu Akcji:  "},
   { "id":"KeyPose_Path_Name", "translation":"Nazwa ścieżki Punktów Akcji:  "},
   { "id":"Description", "translation":"Opis Punktu Akcji:  "},
   { "id":"KeyPose_Type", "translation":"Typ Punktu Akcji:  "},
   { "id":"Waiting_Time", "translation":"Czas oczekiwania [s]:  "},
   { "id":"MidKeyPoseGraph_Saver", "translation":"Zapisz Punkty Trasy"},
   { "id":"DoYouWantToSaveChanges", "translation":"Czy na pewno chcesz zapisać zaminy?"},
   { "id":"KeyPose_Saver", "translation":"Zapisz Punkt"},
   { "id":"EnterName", "translation":"Dodaj nazwę"},
   { "id":"EnterDescription", "translation":"Dodaj opis"},
   { "id":"ButtonWithDeadline", "translation":"Przycisk"},
   { "id":"Simple", "translation":"Prosty"},
   { "id":"Trolley", "translation":"Wózek"},
   { "id":"Door", "translation":"Drzwi"},
   { "id":"GiveWay", "translation":"Give way"},
   { "id":"Charging", "translation":"Ładowanie"},
   { "id":"Lift", "translation":"Podnośnik"},
   { "id":"SetTime", "translation":"Ustaw czas"},
   { "id":"DeafultTime", "translation":"Domyślny czas"},
   { "id":"WaitForButton", "translation":"Czekaj na przycisk"},
   { "id":"EnterTime", "translation":"Podaj czas [s]"},
   { "id":"ResetDiagnostics", "translation":"Reset Diagnostyki"},
   { "id":"MidpointsTolerance", "translation":"Tolerancja\npunktów:"},
   { "id":"Angle", "translation":"Kąt:"},
   { "id":"SetTolerance", "translation":"Ustaw tolerancję"},
   { "id":"BrakeMode", "translation":"tryb hamowania"},
   { "id":"CameraSteeringPose", "translation":"Sterowanie\n kamerą"},
   { "id":"TurnOffLaser", "translation":"Wyłącz \n Laser"},
   { "id":"TurnOnLaser", "translation":"Włącz \n Laser"},
   { "id":"ToGoal", "translation":"Do celu"},
   { "id":"SingleLoop", "translation":"Pojedyncza pętla"},
   { "id":"InfiniteLoop", "translation":"Nieskończona pętla"},
   { "id":"RandomPoint", "translation":"Dowolny punkt"},
   { "id":"WaitForSignal", "translation":"Czekaj na sygnał"},
   { "id":"StopCurrentKeyPose", "translation":"Zatrzymaj aktualny\n        Punkt Akcji"},
   { "id":"Set_visible_of_guidelines", "translation":"Ustaw widoczność\n linii wodzącej"},
   { "id":"CoordinatorStatePanel", "translation":"Panel Stanu Koordynatora"},
   { "id":"CoordinatorState", "translation":"Stan:\n "},
   { "id":"CoordinatorName", "translation":"Nazwa:\n "},
   { "id":"1000", "translation":"INICJACJA - CZEKAJ"},
   { "id":"1001", "translation":"INICJACJA - CZEKAJ"},
   { "id":"1002", "translation":"INICJACJA - CZEKAJ"},
   { "id":"1003", "translation":"INICJACJA - CZEKAJ"},
   { "id":"1004", "translation":"START - CZEKAJ"},
   { "id":"1006", "translation":"PRAWIDŁOWA PRACA"},
   { "id":"STARTING_WORK", "translation":"rozpoczynanie pracy"},
   { "id":"READY_TO_WORK", "translation":"gotowość do pracy"},
   { "id":"BATTERY_LEVLE_CRITICAL", "translation":"krytyczny poziom baterii"},
   { "id":"NEW_ACTIVE_ORDER", "translation":"nowe aktywne zamówienie"},
   { "id":"STOP_CHARGING", "translation":"zatrzymanie ładowania"},
   { "id":"SEND_TO_PICKUP", "translation":"wysłanie do:\npunkt odbioru"},
   { "id":"GOING_TO_PICKUP", "translation":"jazda do:\npunkt odbioru"},
   { "id":"PICKINGUP_LOAD", "translation":"podnoszenie ładunku"},
   { "id":"LEAVING_PICKUP_DOCK", "translation":"opuszczanie doka:\nz ładunkiem"},
   { "id":"CHOOSE_WHERE_TO_SEND", "translation":"wybór gdzie jechać"},
   { "id":"SEND_TO_DESTINATION", "translation":"wysłanie do celu"},
   { "id":"GOING_TO_DESTINATION", "translation":"jazda do celu"},
   { "id":"LEAVING_LOAD", "translation":"zostawienie ładunku"},
   { "id":"LEAVING_DESTINATION_DOCK", "translation":"opuszczanie doka:\nbez ładunku"},
   { "id":"ENDING_ORDER", "translation":"zakończenie zamówienia"},
   { "id":"FIND_NEW_ACTION", "translation":"znalezienie nowej akcji"},
   { "id":"SEND_TO_REST_SPOT", "translation":"wysyłanie do:\npunkt odpoczynku"},
   { "id":"GOING_TO_REST_SPOT", "translation":"jazda do:\npunkt odpoczynku"},
   { "id":"ARRIVED_TO_REST_SPOT", "translation":"dojechanie do:\npunkt odpoczynku"},
   { "id":"SEND_TO_WAITING_SPOT_WITH_LOAD", "translation":"wysyłanie do:\npunkt oczekiwania \nz załadunkiem"},
   { "id":"GOING_TO_WAITING_SPOT_WITH_LOAD", "translation":"jazda do:\npunkt oczekiwania \nz załadunkiem"},
   { "id":"WAITING_IN_WAITING_SPOT_WITH_LOAD", "translation":"dojechanie do:\npunkt oczekiwania \nz załadunkiem"},
   { "id":"PICKUP_DOCK_EMPTY", "translation":"pusty punkt odbioru"},
   { "id":"SEND_TO_CHARGING_SPOT", "translation":"wysyłanie do:\npunkt ładowania"},
   { "id":"GOING_TO_CHARGING_SPOT", "translation":"jazda do:\npunkt ładowania"},
   { "id":"WORK_PAUSED", "translation":"praca zatrzymana"},
   { "id":"ERROR_RESERVED_DOCK_LOADED", "translation":"Błąd:\nzarezerwowany dok pełny"},
   { "id":"ERROR_ROBOT_NOT_EMPTY", "translation":"Błąd:\nrobot nie jest pusty"},
   { "id":"ERROR_ABANDON_ORDER", "translation":"Błąd:\nporzucone zamówienie"},
   { "id":"ERROR_BUTTON_ABANDON_ORDER", "translation":"Błąd:\nporzucone zamówienie\n(przycisk)"},
   { "id":"ERROR_DETECTED_CARGO_AFTER_ABANDON_ORDER", "translation":"Błąd:\nporzucone zamówienie:\n(cargo)"},
        { "id":"Suspend_task_queue", "translation":"Zawieś kolejkę zadań"},
        { "id":"Unsuspend_task_queue", "translation":"Wznów kolejka zadań"},
        { "id":"Abort_current_task", "translation":"Porzuć aktualne zadanie"},
        { "id":"Clear_task_queue", "translation":"Wyczyść kolejkę zadań"}
]}
